ISSS608-VAA - Take Home Exercise 02
…
The median weight is 1 while the mean weight is 26, indicating very left skewed distribution of shipments. We are only interested in shipments with unusual higher frequency. We can choose to look at only source nodes that have shipped the highest number of shipments and target nodes that have received the highest number of shipments

Find top sources and targets

To find the top source, we first aggregate the weight by source id. We used `arrange` to sort the weight in descending order. top_n was used to get the top 50 source with the highest weight

top_source<-MC2_edges_aggregated %>% 
  group_by(source) %>%
  summarise(weight=sum(weight)) %>%
  arrange(desc(weight)) %>% 
  top_n(50,weight)

top_source

# A tibble: 50 × 2
   source                                     weight
   <fct>                                       <int>
 1 Fresh Limited Liability Company            147137
 2 Chhattisgarh   Marine ecology A/S Delivery 112005
 3 Uttar Pradesh s CJSC                       109347
 4 French Crab S.p.A. Worldwide                86633
 5 bǐ mù yú Sagl Distribution                  74955
 6 Mar y Luna Sagl                             74226
 7 Coastal Cruisers Pic Shipping               73564
 8 Marine Masterminds Dry dock                 69762
 9 Zambezi Gorge  N.V. Transport               65305
10 Orange River   GmbH & Co. KG Shipping       57622
# ℹ 40 more rows

To find the top target, we first aggregate the weight by source id. We used `arrange` to sort the weight in descending order. top_n was used to get the top 50 sources with the highest weight

top_target<-MC2_edges_aggregated %>% 
  group_by(target) %>%
  summarise(weight=sum(weight)) %>% 
  arrange(desc(weight)) %>% 
  top_n(50,weight)

top_target

# A tibble: 50 × 2
   target                                       weight
   <fct>                                         <int>
 1 hǎi dǎn Corporation Wharf                    402047
 2 Saltwater Supreme ОАО Forwading              178985
 3 Caracola del Sol Services                    172518
 4 Panope Limited Liability Company             152921
 5 Costa de la Felicidad Shipping               142912
 6 Mar del Este CJSC                            101308
 7 Coral Cove BV Delivery                        97582
 8 Sailors and Surfers Incorporated Enterprises  94501
 9 Pao gan SE Seal                               78697
10 Sea Breezes GmbH & Co. KG Shark               70991
# ℹ 40 more rows

We used filter to filter the edges and nodes that contain the source in top_source and target in top_target

top_MC2_edges<-MC2_edges_aggregated %>% 
  filter(source %in% top_source$source &
         target %in% top_target$target) 
top_MC2_edges

# A tibble: 1,573 × 4
   source                            target                      weight weightkg
   <fct>                             <fct>                        <int>    <dbl>
 1 Arunachal Pradesh s A/S Transport Arunachal Pradesh s A/S Tr…  14052    1636.
 2 Arunachal Pradesh s A/S Transport Black Sea Tuna Snapper           1      30 
 3 Arunachal Pradesh s A/S Transport Chhattisgarh   Marine ecol…     19     483.
 4 Arunachal Pradesh s A/S Transport Coastal Castaway Coast Cor…     17     558.
 5 Arunachal Pradesh s A/S Transport Oceanic Explorers Sashimi …      2     282.
 6 Arunachal Pradesh s A/S Transport Olas del Mar Worldwide          53     166.
 7 Arunachal Pradesh s A/S Transport Portuguese Tuna Incorporat…      1     800 
 8 Arunachal Pradesh s A/S Transport ReefRider Foods Ltd. Corpo…      8     234.
 9 Arunachal Pradesh s A/S Transport Saltwater Supreme Pelican …      1     290 
10 Arunachal Pradesh s A/S Transport Uttarakhand  Market Limite…      1      20 
# ℹ 1,563 more rows
…
Data Visualization

Visualize the main graph

top_MC2_graph<-tbl_graph(nodes=top_MC2_nodes,
                         edges=top_MC2_edges,
                         directed = TRUE)

top_MC2_graph

# A tbl_graph: 97 nodes and 1573 edges
#
# A directed multigraph with 1 component
#
# A tibble: 97 × 3
  id                               shpcountry rcvcountry
  <fct>                            <fct>      <fct>     
1 Olas del Mar Worldwide           Oceanus    Oceanus   
2 French Crab S.p.A. Worldwide     Kondanovia Utoporiana
3 Panope Limited Liability Company Vesperanda Oceanus   
4 hǎi dǎn Corporation Wharf        Marebak    Oceanus   
5 Sea Breezes GmbH & Co. KG Shark  Oceanus    Oceanus   
6 Costa de la Felicidad Shipping   Alverossia Oceanus   
# ℹ 91 more rows
#
# A tibble: 1,573 × 4
   from    to weight weightkg
  <int> <int>  <int>    <dbl>
1     1     1  14052    1636.
2     1     2      1      30 
3     1     3     19     483.
# ℹ 1,570 more rows

top_MC2_graph %>% 
  activate(edges) %>% 
  arrange(desc(weight))

# A tbl_graph: 97 nodes and 1573 edges
#
# A directed multigraph with 1 component
#
# A tibble: 1,573 × 4
   from    to weight weightkg
  <int> <int>  <int>    <dbl>
1    76    42  47134    6800.
2     5     5  46205     595.
3    62    42  35898    7609.
4     3     3  28788     177.
5    55    19  23752   16682.
6    84    25  21969   51730.
# ℹ 1,567 more rows
#
# A tibble: 97 × 3
  id                               shpcountry rcvcountry
  <fct>                            <fct>      <fct>     
1 Olas del Mar Worldwide           Oceanus    Oceanus   
2 French Crab S.p.A. Worldwide     Kondanovia Utoporiana
3 Panope Limited Liability Company Vesperanda Oceanus   
# ℹ 94 more rows
…
top_MC2_edges_aggregated<-top_MC2_edges %>% 
  rename(from=source) %>% 
  rename(to=target)

top_MC2_edges_aggregated

# A tibble: 1,573 × 4
   from                              to                          weight weightkg
   <fct>                             <fct>                        <int>    <dbl>
 1 Arunachal Pradesh s A/S Transport Arunachal Pradesh s A/S Tr…  14052    1636.
 2 Arunachal Pradesh s A/S Transport Black Sea Tuna Snapper           1      30 
 3 Arunachal Pradesh s A/S Transport Chhattisgarh   Marine ecol…     19     483.
 4 Arunachal Pradesh s A/S Transport Coastal Castaway Coast Cor…     17     558.
 5 Arunachal Pradesh s A/S Transport Oceanic Explorers Sashimi …      2     282.
 6 Arunachal Pradesh s A/S Transport Olas del Mar Worldwide          53     166.
 7 Arunachal Pradesh s A/S Transport Portuguese Tuna Incorporat…      1     800 
 8 Arunachal Pradesh s A/S Transport ReefRider Foods Ltd. Corpo…      8     234.
 9 Arunachal Pradesh s A/S Transport Saltwater Supreme Pelican …      1     290 
10 Arunachal Pradesh s A/S Transport Uttarakhand  Market Limite…      1      20 
# ℹ 1,563 more rows
…
