ISSS608-VAA - Take-home Exercise 1
…
is.na() function is also used to confirm that there are no missing values in the demo_info dataset.

Show code

#Check for mising values
any(is.na(demo_info))

[1] FALSE

Show code

# check unique values and their frequency for each column
demo_info

# A tibble: 1,011 × 7
   participantId householdSize haveKids   age educationLevel      interestGroup
           <dbl>         <dbl> <lgl>    <dbl> <chr>               <chr>        
 1             0             3 TRUE        36 HighSchoolOrCollege H            
 2             1             3 TRUE        25 HighSchoolOrCollege B            
 3             2             3 TRUE        35 HighSchoolOrCollege A            
 4             3             3 TRUE        21 HighSchoolOrCollege I            
 5             4             3 TRUE        43 Bachelors           H            
 6             5             3 TRUE        32 HighSchoolOrCollege D            
 7             6             3 TRUE        26 HighSchoolOrCollege I            
 8             7             3 TRUE        27 Bachelors           A            
 9             8             3 TRUE        20 Bachelors           G            
10             9             3 TRUE        35 Bachelors           D            
# ℹ 1,001 more rows
# ℹ 1 more variable: joviality <dbl>
…
# Discrete data

demo_info$householdSize<-as.integer(demo_info$householdSize)

Duplicated Data

Duplicated data is detected by select rows with duplicate data for financial journal. Since at each timestamp there can only be one single transaction of the same category and amount, the duplicate data should be excluded from analysis.

Show code

#check for duplicates; find all rows with the same values for all columns
transactions[duplicated(transactions),]

# A tibble: 1,113 × 4
   participantId timestamp           category   amount
   <fct>         <dttm>              <fct>       <dbl>
 1 0             2022-03-01 00:00:00 Shelter    -555. 
 2 0             2022-03-01 00:00:00 Education   -38.0
 3 1             2022-03-01 00:00:00 Shelter    -555. 
 4 1             2022-03-01 00:00:00 Education   -38.0
 5 2             2022-03-01 00:00:00 Shelter    -557. 
 6 2             2022-03-01 00:00:00 Education   -12.8
 7 3             2022-03-01 00:00:00 Shelter    -555. 
 8 3             2022-03-01 00:00:00 Education   -38.0
 9 4             2022-03-01 00:00:00 Shelter   -1556. 
10 4             2022-03-01 00:00:00 Education   -12.8
# ℹ 1,103 more rows
…
Show code

# Use group by to get monthly expense by participantID, month and category

transactions<-transactions %>%
  select(participantId,month,category,amount) %>% 
  group_by(participantId,month,category)%>%
  summarize(monthly_amt=sum(amount))

transactions

# A tibble: 44,524 × 4
# Groups:   participantId, month [10,691]
   participantId month     category   monthly_amt
   <fct>         <yearmon> <fct>            <dbl>
 1 0             Mar 2022  Education         38.0
 2 0             Mar 2022  Food             268. 
 3 0             Mar 2022  Recreation       349. 
 4 0             Mar 2022  Shelter          555. 
 5 0             Mar 2022  Wage           11932. 
 6 0             Apr 2022  Education         38.0
 7 0             Apr 2022  Food             266. 
 8 0             Apr 2022  Recreation       219. 
 9 0             Apr 2022  Shelter          555. 
10 0             Apr 2022  Wage            8637. 
# ℹ 44,514 more rows

Convert transaction category to columns

Show code

# Put value 0 for missing values, rental adjustment category is not applicable for all participants 
transactions_amt<-transactions %>% 
  pivot_wider(
    names_from=category,
    values_from=monthly_amt,
    values_fill = 0)

transactions_amt

# A tibble: 10,691 × 8
# Groups:   participantId, month [10,691]
   participantId month  Education  Food Recreation Shelter   Wage RentAdjustment
   <fct>         <year>     <dbl> <dbl>      <dbl>   <dbl>  <dbl>          <dbl>
 1 0             Mar 2…      38.0  268.      349.     555. 11932.              0
 2 0             Apr 2…      38.0  266.      219.     555.  8637.              0
 3 0             May 2…      38.0  265.      383.     555.  9048.              0
 4 0             Jun 2…      38.0  257.      466.     555.  9048.              0
 5 0             Jul 2…      38.0  270.     1070.     555.  8637.              0
 6 0             Aug 2…      38.0  262.      314.     555.  9459.              0
 7 0             Sep 2…      38.0  256.      295.     555.  9048.              0
 8 0             Oct 2…      38.0  267.       25.0    555.  8637.              0
 9 0             Nov 2…      38.0  261.      377.     555.  9048.              0
10 0             Dec 2…      38.0  266.      357.     555.  9048.              0
# ℹ 10,681 more rows
…
